127.0.0.1 - - [17/Apr/2024:22:57:10 +0530] "GET / HTTP/1.1" 404 752
0:0:0:0:0:0:0:1 - - [17/Apr/2024:22:57:11 +0530] "GET /StudentWebApp/HI.html HTTP/1.1" 200 555
0:0:0:0:0:0:0:1 - - [17/Apr/2024:22:57:26 +0530] "POST /StudentWebApp/LoginServlet HTTP/1.1" 200 358
0:0:0:0:0:0:0:1 - - [17/Apr/2024:22:57:28 +0530] "GET /StudentWebApp/GetStudentById.html HTTP/1.1" 200 420
0:0:0:0:0:0:0:1 - - [17/Apr/2024:22:57:33 +0530] "POST /StudentWebApp/GetStudentById HTTP/1.1" 500 1196
127.0.0.1 - - [17/Apr/2024:22:58:52 +0530] "GET / HTTP/1.1" 404 752
0:0:0:0:0:0:0:1 - - [17/Apr/2024:22:58:53 +0530] "GET /StudentWebApp/GetStudentById HTTP/1.1" 500 1206
0:0:0:0:0:0:0:1 - - [17/Apr/2024:23:00:19 +0530] "GET /StudentWebApp/AdminHomePage HTTP/1.1" 500 1081
0:0:0:0:0:0:0:1 - - [17/Apr/2024:23:02:57 +0530] "GET /StudentWebApp/AdminHomePage HTTP/1.1" 500 1081
0:0:0:0:0:0:0:1 - - [17/Apr/2024:23:04:37 +0530] "POST /StudentWebApp/LoginServlet HTTP/1.1" 200 358
0:0:0:0:0:0:0:1 - - [17/Apr/2024:23:04:40 +0530] "GET /StudentWebApp/AdminHomePage HTTP/1.1" 200 358
0:0:0:0:0:0:0:1 - - [17/Apr/2024:23:04:43 +0530] "GET /StudentWebApp/ HTTP/1.1" 404 770
0:0:0:0:0:0:0:1 - - [17/Apr/2024:23:04:57 +0530] "POST /StudentWebApp/GetStudentById HTTP/1.1" 500 1196
0:0:0:0:0:0:0:1 - - [17/Apr/2024:23:16:46 +0530] "POST /StudentWebApp/LoginServlet HTTP/1.1" 200 358
0:0:0:0:0:0:0:1 - - [17/Apr/2024:23:16:51 +0530] "POST /StudentWebApp/GetStudentById HTTP/1.1" 500 1262
127.0.0.1 - - [17/Apr/2024:23:18:03 +0530] "GET / HTTP/1.1" 404 752
0:0:0:0:0:0:0:1 - - [17/Apr/2024:23:18:16 +0530] "POST /StudentWebApp/LoginServlet HTTP/1.1" 200 358
0:0:0:0:0:0:0:1 - - [17/Apr/2024:23:18:23 +0530] "POST /StudentWebApp/GetStudentById HTTP/1.1" 500 1196
0:0:0:0:0:0:0:1 - - [17/Apr/2024:23:21:31 +0530] "GET /StudentWebApp/AdminHomePage HTTP/1.1" 200 358
0:0:0:0:0:0:0:1 - - [17/Apr/2024:23:21:39 +0530] "POST /StudentWebApp/GetStudentById HTTP/1.1" 500 1196
0:0:0:0:0:0:0:1 - - [17/Apr/2024:23:24:15 +0530] "GET /StudentWebApp/AdminHomePage HTTP/1.1" 200 358
0:0:0:0:0:0:0:1 - - [17/Apr/2024:23:24:26 +0530] "POST /StudentWebApp/GetStudentById HTTP/1.1" 500 1196
127.0.0.1 - - [17/Apr/2024:23:29:12 +0530] "GET / HTTP/1.1" 404 752
0:0:0:0:0:0:0:1 - - [17/Apr/2024:23:29:13 +0530] "GET /StudentWebApp/AdminHomePage HTTP/1.1" 200 358
0:0:0:0:0:0:0:1 - - [17/Apr/2024:23:29:21 +0530] "POST /StudentWebApp/GetStudentById HTTP/1.1" 200 695
0:0:0:0:0:0:0:1 - - [17/Apr/2024:23:29:35 +0530] "GET /StudentWebApp/ HTTP/1.1" 404 770
0:0:0:0:0:0:0:1 - - [17/Apr/2024:23:29:41 +0530] "GET /StudentWebApp/AdminHomePage HTTP/1.1" 200 358
0:0:0:0:0:0:0:1 - - [17/Apr/2024:23:29:53 +0530] "POST /StudentWebApp/GetStudentById HTTP/1.1" 200 704
