0:0:0:0:0:0:0:1 - - [18/Apr/2024:00:25:09 +0530] "GET /StudentWebApp/AdminHomePage HTTP/1.1" 500 1081
0:0:0:0:0:0:0:1 - - [18/Apr/2024:00:26:23 +0530] "GET /StudentWebApp/AdminHomePage HTTP/1.1" 500 1081
127.0.0.1 - - [18/Apr/2024:00:27:15 +0530] "GET / HTTP/1.1" 404 752
0:0:0:0:0:0:0:1 - - [18/Apr/2024:00:27:16 +0530] "GET /StudentWebApp/AdminHomePage HTTP/1.1" 500 1081
0:0:0:0:0:0:0:1 - - [18/Apr/2024:00:30:08 +0530] "GET /StudentWebApp/AdminHomePage HTTP/1.1" 500 1081
0:0:0:0:0:0:0:1 - - [18/Apr/2024:00:33:21 +0530] "GET /StudentWebApp/AdminHomePage HTTP/1.1" 500 1081
127.0.0.1 - - [18/Apr/2024:00:35:19 +0530] "GET / HTTP/1.1" 404 752
0:0:0:0:0:0:0:1 - - [18/Apr/2024:00:35:33 +0530] "POST /StudentWebApp/LoginServlet HTTP/1.1" 200 373
0:0:0:0:0:0:0:1 - - [18/Apr/2024:00:35:36 +0530] "GET /StudentWebApp/GetAllStudents HTTP/1.1" 200 1232
0:0:0:0:0:0:0:1 - - [18/Apr/2024:00:35:47 +0530] "POST /StudentWebApp/GetStudentById HTTP/1.1" 200 710
0:0:0:0:0:0:0:1 - - [18/Apr/2024:00:35:50 +0530] "GET /StudentWebApp/AdminHomePage HTTP/1.1" 200 373
0:0:0:0:0:0:0:1 - - [18/Apr/2024:00:49:15 +0530] "POST /StudentWebApp/LoginServlet HTTP/1.1" 200 370
0:0:0:0:0:0:0:1 - - [18/Apr/2024:00:49:30 +0530] "POST /StudentWebApp/GetStudentById HTTP/1.1" 200 718
0:0:0:0:0:0:0:1 - - [18/Apr/2024:00:49:32 +0530] "GET /StudentWebApp/GetAllStudents HTTP/1.1" 200 1240
0:0:0:0:0:0:0:1 - - [18/Apr/2024:00:51:14 +0530] "POST /StudentWebApp/LoginServlet HTTP/1.1" 200 330
0:0:0:0:0:0:0:1 - - [18/Apr/2024:00:51:16 +0530] "GET /StudentWebApp/Profile HTTP/1.1" 200 614
0:0:0:0:0:0:0:1 - - [18/Apr/2024:00:51:24 +0530] "GET /StudentWebApp/Logout HTTP/1.1" 200 555
127.0.0.1 - - [18/Apr/2024:00:53:12 +0530] "GET / HTTP/1.1" 404 752
0:0:0:0:0:0:0:1 - - [18/Apr/2024:00:53:13 +0530] "GET /StudentWebApp/StudentHomePage HTTP/1.1" 500 1085
0:0:0:0:0:0:0:1 - - [18/Apr/2024:00:53:34 +0530] "POST /StudentWebApp/LoginServlet HTTP/1.1" 200 330
0:0:0:0:0:0:0:1 - - [18/Apr/2024:00:53:36 +0530] "GET /StudentWebApp/Profile HTTP/1.1" 200 614
0:0:0:0:0:0:0:1 - - [18/Apr/2024:00:53:50 +0530] "GET /StudentWebApp/StudentHomePage HTTP/1.1" 200 330
127.0.0.1 - - [18/Apr/2024:09:49:08 +0530] "GET / HTTP/1.1" 404 752
0:0:0:0:0:0:0:1 - - [18/Apr/2024:09:49:35 +0530] "POST /StudentWebApp/LoginServlet HTTP/1.1" 200 330
0:0:0:0:0:0:0:1 - - [18/Apr/2024:09:49:45 +0530] "GET /StudentWebApp/Profile HTTP/1.1" 200 614
0:0:0:0:0:0:0:1 - - [18/Apr/2024:09:50:09 +0530] "POST /StudentWebApp/LoginServlet HTTP/1.1" 200 346
0:0:0:0:0:0:0:1 - - [18/Apr/2024:09:50:19 +0530] "GET /StudentWebApp/GetAllStudents HTTP/1.1" 200 1205
0:0:0:0:0:0:0:1 - - [18/Apr/2024:09:50:26 +0530] "GET /StudentWebApp/GetStudentById.html HTTP/1.1" 304 -
0:0:0:0:0:0:0:1 - - [18/Apr/2024:09:50:33 +0530] "POST /StudentWebApp/GetStudentById HTTP/1.1" 200 683
