127.0.0.1 - - [05/Apr/2024:11:38:46 +0530] "GET / HTTP/1.1" 404 752
0:0:0:0:0:0:0:1 - - [05/Apr/2024:11:38:47 +0530] "GET /EmpWebApp/Hi.html HTTP/1.1" 200 567
0:0:0:0:0:0:0:1 - - [05/Apr/2024:11:38:54 +0530] "POST /EmpWebApp/Login HTTP/1.1" 500 12
0:0:0:0:0:0:0:1 - - [05/Apr/2024:11:39:28 +0530] "GET /EmpWebApp/Hi.html HTTP/1.1" 304 -
0:0:0:0:0:0:0:1 - - [05/Apr/2024:11:39:47 +0530] "POST /EmpWebApp/Login HTTP/1.1" 500 12
0:0:0:0:0:0:0:1 - - [05/Apr/2024:11:40:07 +0530] "GET /EmpWebApp/Login HTTP/1.1" 500 12
0:0:0:0:0:0:0:1 - - [05/Apr/2024:11:42:04 +0530] "GET /EmpWebApp/WEB-INF/classes/com/dao/EmployeeDAO.java HTTP/1.1" 404 683
127.0.0.1 - - [05/Apr/2024:11:42:15 +0530] "GET / HTTP/1.1" 404 752
0:0:0:0:0:0:0:1 - - [05/Apr/2024:11:42:16 +0530] "GET /EmpWebApp/Hi.html HTTP/1.1" 304 -
0:0:0:0:0:0:0:1 - - [05/Apr/2024:11:42:23 +0530] "POST /EmpWebApp/Login HTTP/1.1" 500 12
0:0:0:0:0:0:0:1 - - [05/Apr/2024:11:46:43 +0530] "GET /EmpWebApp/Hi.html HTTP/1.1" 304 -
0:0:0:0:0:0:0:1 - - [05/Apr/2024:11:46:47 +0530] "GET /EmpWebApp/Registration.html HTTP/1.1" 200 778
0:0:0:0:0:0:0:1 - - [05/Apr/2024:12:01:20 +0530] "GET /EmpWebApp/Hi.html HTTP/1.1" 304 -
0:0:0:0:0:0:0:1 - - [05/Apr/2024:12:01:40 +0530] "POST /EmpWebApp/Login HTTP/1.1" 500 12
0:0:0:0:0:0:0:1 - - [05/Apr/2024:12:07:31 +0530] "GET /EmpWebApp/Hi.html HTTP/1.1" 304 -
0:0:0:0:0:0:0:1 - - [05/Apr/2024:12:07:39 +0530] "POST /EmpWebApp/Login HTTP/1.1" 500 12
0:0:0:0:0:0:0:1 - - [05/Apr/2024:12:12:22 +0530] "GET /EmpWebApp/Hi.html HTTP/1.1" 304 -
0:0:0:0:0:0:0:1 - - [05/Apr/2024:12:12:29 +0530] "POST /EmpWebApp/Login HTTP/1.1" 405 752
127.0.0.1 - - [05/Apr/2024:12:13:00 +0530] "GET / HTTP/1.1" 404 752
0:0:0:0:0:0:0:1 - - [05/Apr/2024:12:13:12 +0530] "POST /EmpWebApp/Login HTTP/1.1" 405 752
0:0:0:0:0:0:0:1 - - [05/Apr/2024:12:14:52 +0530] "POST /EmpWebApp/Login HTTP/1.1" 405 752
