INDEX VERSION 1.130+C:\fsd 62\fsd62\Module3\StudentWebAppWorkspace\.metadata\.plugins\org.eclipse.jdt.core
743109110.index
2194716159.index
4278764599.index
2354166398.index
1611020005.index
3825647790.index
211159653.index
599049241.index
4033505973.index
2758576337.index
3566089501.index
342514465.index
1552878334.index
3610567823.index
3126249444.index
1980557525.index
63023809.index
1737575566.index
3312165055.index
3324898567.index
4273315080.index
2006079928.index
3355708150.index
813964236.index
3852244655.index
2754831543.index
3129104022.index
2165932507.index
2653330038.index
75973372.index
2886443320.index
585472926.index
2056796372.index
4155872415.index
2071462652.index
537976347.index
186641554.index
2945249621.index
1633262424.index
180487744.index
1110969604.index
4168022022.index
1227306570.index
761247917.index
451118929.index
401767567.index
2782998763.index
3755866047.index
2256529200.index
2339389650.index
